{
  "project_info": {
    "project_number": "504754702267",
    "project_id": "carbon-app-tase"
  },
  "client": [
    {
      "client_info": {
        "mobilesdk_app_id": "1:504754702267:android:b5cf886c2d573c29",
        "android_client_info": {
          "package_name": "ro.tasegula.carbon.android"
        }
      },
      "oauth_client": [
        {
          "client_id": "504754702267-pn3ml00bn53bn87c5tboktq9rbimgg7b.apps.googleusercontent.com",
          "client_type": 1,
          "android_info": {
            "package_name": "ro.tasegula.carbon.android",
            "certificate_hash": "5088f201cdf593084948d10e49a8340845007db6"
          }
        },
        {
          "client_id": "504754702267-vt1a1fl3kb4ofeqjca1lmg938sjmgtbn.apps.googleusercontent.com",
          "client_type": 3
        }
      ],
      "api_key": [
        {
          "current_key": "AIzaSyBEZ6QAy6jlqN_5nZa50JGoXxxvoIydAk8"
        }
      ],
      "services": {
        "analytics_service": {
          "status": 1
        },
        "appinvite_service": {
          "status": 1,
          "other_platform_oauth_client": []
        },
        "ads_service": {
          "status": 1
        }
      }
    }
  ],
  "configuration_version": "1"
}